module hifi-tui

go 1.21.6

require (
	github.com/charmbracelet/bubbles v0.17.1
	github.com/charmbracelet/bubbletea v0.25.0
	github.com/charmbracelet/lipgloss v0.9.1
	github.com/gdamore/tcell/v2 v2.7.0
	github.com/rivo/tview v0.0.0-20240122063236-8526c9fe1b54
)

require (
	github.com/aymanbagabas/go-osc52/v2 v2.0.1 // indirect
	github.com/containerd/console v1.0.4-0.20230313162750-1ae8d489ac81 // indirect
	github.com/gdamore/encoding v1.0.0 // indirect
	github.com/lucasb-eyer/go-colorful v1.2.0 // indirect
	github.com/mattn/go-isatty v0.0.18 // indirect
	github.com/mattn/go-localereader v0.0.1 // indirect
	github.com/mattn/go-runewidth v0.0.15 // indirect
	github.com/muesli/ansi v0.0.0-20211018074035-2e021307bc4b // indirect
	github.com/muesli/cancelreader v0.2.2 // indirect
	github.com/muesli/reflow v0.3.0 // indirect
	github.com/muesli/termenv v0.15.2 // indirect
	github.com/rivo/uniseg v0.4.3 // indirect
	golang.org/x/sync v0.1.0 // indirect
	golang.org/x/sys v0.15.0 // indirect
	golang.org/x/term v0.15.0 // indirect
	golang.org/x/text v0.14.0 // indirect
)
